%!PS-Adobe-3.0 EPSF-3.0
%%Creator: inkscape 0.45.1
%%Pages: 1
%%Orientation: Portrait
%%BoundingBox: 0 0 169 56
%%HiResBoundingBox: 0 0 169 56
%%EndComments
%%Page: 1 1
0 56 translate
0.8 -0.8 scale
0 0 0 setrgbcolor
[] 0 setdash
1 setlinewidth
0 setlinejoin
0 setlinecap
gsave [1 0 0 1 0 0] concat
gsave [1 0 0 1 2.5 0] concat
gsave
0 0 0 setrgbcolor
newpath
54.999999 26.458279 moveto
72.09484 26.458279 lineto
72.09484 31.24615 lineto
61.334468 31.24615 lineto
61.334468 35.820131 lineto
71.453166 35.820131 lineto
71.453166 40.608003 lineto
61.334468 40.608003 lineto
61.334468 46.234986 lineto
72.456809 46.234986 lineto
72.456809 51.022858 lineto
54.999999 51.022858 lineto
54.999999 26.458279 lineto
fill
grestore
gsave
0 0 0 setrgbcolor
newpath
78.034434 26.458279 moveto
84.368903 26.458279 lineto
84.368903 46.234986 lineto
95.491245 46.234986 lineto
95.491245 51.022858 lineto
78.034434 51.022858 lineto
78.034434 26.458279 lineto
fill
grestore
gsave
0 0 0 setrgbcolor
newpath
99.489363 26.458279 moveto
105.82383 26.458279 lineto
105.82383 46.234986 lineto
116.94617 46.234986 lineto
116.94617 51.022858 lineto
99.489363 51.022858 lineto
99.489363 26.458279 lineto
fill
grestore
gsave
0 0 0 setrgbcolor
newpath
127.27877 31.24615 moveto
127.27877 46.234986 lineto
129.5493 46.234986 lineto
132.13792 46.234991 134.1123 45.593318 135.47244 44.309965 curveto
136.84352 43.026626 137.52907 41.161936 137.52909 38.715888 curveto
137.52907 36.280834 136.84901 34.427113 135.4889 33.154718 curveto
134.12875 31.882359 132.14889 31.24617 129.5493 31.24615 curveto
127.27877 31.24615 lineto
120.9443 26.458279 moveto
127.62428 26.458279 lineto
131.35365 26.458303 134.12875 26.727038 135.94959 27.264484 curveto
137.78135 27.791008 139.34988 28.690447 140.65519 29.962803 curveto
141.80689 31.07067 142.66245 32.348531 143.22189 33.796391 curveto
143.78127 35.244286 144.06097 36.884117 144.061 38.715888 curveto
144.06097 40.569622 143.78127 42.225906 143.22189 43.684745 curveto
142.66245 45.13263 141.80689 46.410491 140.65519 47.518333 curveto
139.33892 48.790714 137.75941 49.695637 135.91668 50.233106 curveto
134.07391 50.759607 131.30978 51.022858 127.62428 51.022858 curveto
120.9443 51.022858 lineto
120.9443 26.458279 lineto
fill
grestore
gsave
0 0 0 setrgbcolor
newpath
148.91468 26.458279 moveto
155.24915 26.458279 lineto
155.24915 41.183864 lineto
155.24914 43.213095 155.5782 44.666457 156.23634 45.543953 curveto
156.90542 46.410491 157.99133 46.843757 159.49407 46.843753 curveto
161.00774 46.843757 162.09365 46.410491 162.75179 45.543953 curveto
163.42087 44.666457 163.75542 43.213095 163.75544 41.183864 curveto
163.75544 26.458279 lineto
170.08991 26.458279 lineto
170.08991 41.183864 lineto
170.08988 44.660973 169.21786 47.249602 167.47385 48.949759 curveto
165.7298 50.64992 163.06987 51.499999 159.49407 51.5 curveto
155.9292 51.499999 153.27476 50.64992 151.53073 48.949759 curveto
149.78669 47.249602 148.91468 44.660973 148.91468 41.183864 curveto
148.91468 26.458279 lineto
fill
grestore
gsave
0 0 0 setrgbcolor
newpath
193.38759 27.231578 moveto
193.38759 32.430778 lineto
192.03842 31.827515 190.72216 31.372311 189.43883 31.065166 curveto
188.15547 30.75806 186.94342 30.604497 185.80268 30.604477 curveto
184.28898 30.604497 183.17017 30.812904 182.44624 31.229697 curveto
181.72229 31.64653 181.36032 32.293687 181.36033 33.171171 curveto
181.36032 33.829315 181.60163 34.344847 182.08427 34.717769 curveto
182.57785 35.079754 183.46632 35.392364 184.74968 35.655599 curveto
187.448 36.198554 lineto
190.17921 36.747007 192.12068 37.580633 193.27242 38.699435 curveto
194.42412 39.818262 194.99998 41.408733 195.00001 43.470854 curveto
194.99998 46.180147 194.19378 48.1984 192.58139 49.525619 curveto
190.97993 50.841873 188.52841 51.499999 185.22682 51.5 curveto
183.66925 51.499999 182.1062 51.351921 180.53767 51.055764 curveto
178.96913 50.759607 177.4006 50.320857 175.83207 49.739511 curveto
175.83207 44.392231 lineto
177.4006 45.225864 178.91429 45.856568 180.37314 46.284345 curveto
181.84295 46.701163 183.25792 46.90957 184.61806 46.909566 curveto
186.00011 46.90957 187.0586 46.679226 187.79352 46.218533 curveto
188.52841 45.757849 188.89586 45.099723 188.89588 44.244153 curveto
188.89586 43.476346 188.64358 42.884032 188.13903 42.467211 curveto
187.64542 42.050406 186.65275 41.677468 185.16101 41.348395 curveto
182.70949 40.805441 lineto
180.25248 40.27895 178.4536 39.439839 177.31285 38.288106 curveto
176.18306 37.136398 175.61817 35.584318 175.61817 33.63186 curveto
175.61817 31.185842 176.40792 29.304698 177.98743 27.988423 curveto
179.56693 26.672194 181.83746 26.014068 184.79904 26.014043 curveto
186.14819 26.014068 187.53574 26.118271 188.96169 26.326653 curveto
190.38762 26.524116 191.86292 26.825757 193.38759 27.231578 curveto
fill
grestore
gsave
0 0 0 setrgbcolor
newpath
42 7 moveto
48 7 lineto
48 51 lineto
42 51 lineto
42 7 lineto
closepath
fill
grestore
gsave
0 0 0 setrgbcolor
newpath
110 5 moveto
180 5 202 22 202 22 curveto
202 22 174 11 110 11 curveto
31 11 4 32 4 32 curveto
4 32 13 5 110 5 curveto
closepath
eofill
grestore
grestore
gsave
0 0 0 setrgbcolor
newpath
5.8632812 55.358795 moveto
16.613281 55.358795 lineto
16.613281 57.632233 lineto
12.746094 57.632233 lineto
12.746094 67.022858 lineto
9.7382812 67.022858 lineto
9.7382812 57.632233 lineto
5.8632812 57.632233 lineto
5.8632812 55.358795 lineto
fill
grestore
gsave
0 0 0 setrgbcolor
newpath
fill
grestore
gsave
0 0 0 setrgbcolor
newpath
23.722656 55.358795 moveto
31.839844 55.358795 lineto
31.839844 57.632233 lineto
26.730469 57.632233 lineto
26.730469 59.804108 lineto
31.535156 59.804108 lineto
31.535156 62.077545 lineto
26.730469 62.077545 lineto
26.730469 64.74942 lineto
32.011719 64.74942 lineto
32.011719 67.022858 lineto
23.722656 67.022858 lineto
23.722656 55.358795 lineto
fill
grestore
gsave
0 0 0 setrgbcolor
newpath
fill
grestore
gsave
0 0 0 setrgbcolor
newpath
49.472656 66.382233 moveto
48.920563 66.668691 48.345042 66.884837 47.746094 67.03067 curveto
47.147127 67.176503 46.522128 67.24942 45.871094 67.24942 curveto
43.92838 67.24942 42.389319 66.707754 41.253906 65.62442 curveto
40.118488 64.535881 39.55078 63.061924 39.550781 61.202545 curveto
39.55078 59.33797 40.118488 57.864013 41.253906 56.78067 curveto
42.389319 55.69214 43.92838 55.14787 45.871094 55.147858 curveto
46.522128 55.14787 47.147127 55.220786 47.746094 55.366608 curveto
48.345042 55.512453 48.920563 55.728598 49.472656 56.015045 curveto
49.472656 58.429108 lineto
48.915354 58.048908 48.365876 57.770263 47.824219 57.59317 curveto
47.282544 57.416096 46.712232 57.327555 46.113281 57.327545 curveto
45.040358 57.327555 44.196609 57.671305 43.582031 58.358795 curveto
42.967444 59.046303 42.660152 59.994219 42.660156 61.202545 curveto
42.660152 62.405675 42.967444 63.350986 43.582031 64.038483 curveto
44.196609 64.725985 45.040358 65.069735 46.113281 65.069733 curveto
46.712232 65.069735 47.282544 64.981193 47.824219 64.804108 curveto
48.365876 64.627027 48.915354 64.348381 49.472656 63.96817 curveto
49.472656 66.382233 lineto
fill
grestore
gsave
0 0 0 setrgbcolor
newpath
fill
grestore
gsave
0 0 0 setrgbcolor
newpath
57.535156 55.358795 moveto
60.542969 55.358795 lineto
60.542969 59.804108 lineto
64.980469 59.804108 lineto
64.980469 55.358795 lineto
67.988281 55.358795 lineto
67.988281 67.022858 lineto
64.980469 67.022858 lineto
64.980469 62.077545 lineto
60.542969 62.077545 lineto
60.542969 67.022858 lineto
57.535156 67.022858 lineto
57.535156 55.358795 lineto
fill
grestore
gsave
0 0 0 setrgbcolor
newpath
fill
grestore
gsave
0 0 0 setrgbcolor
newpath
76.503906 55.358795 moveto
79.863281 55.358795 lineto
84.105469 63.358795 lineto
84.105469 55.358795 lineto
86.957031 55.358795 lineto
86.957031 67.022858 lineto
83.597656 67.022858 lineto
79.355469 59.022858 lineto
79.355469 67.022858 lineto
76.503906 67.022858 lineto
76.503906 55.358795 lineto
fill
grestore
gsave
0 0 0 setrgbcolor
newpath
fill
grestore
gsave
0 0 0 setrgbcolor
newpath
100.80078 57.327545 moveto
99.884109 57.327555 99.173172 57.666096 98.667969 58.34317 curveto
98.162756 59.020262 97.910152 59.973386 97.910156 61.202545 curveto
97.910152 62.426508 98.162756 63.377028 98.667969 64.054108 curveto
99.173172 64.731193 99.884109 65.069735 100.80078 65.069733 curveto
101.72265 65.069735 102.43619 64.731193 102.94141 64.054108 curveto
103.44661 63.377028 103.69921 62.426508 103.69922 61.202545 curveto
103.69921 59.973386 103.44661 59.020262 102.94141 58.34317 curveto
102.43619 57.666096 101.72265 57.327555 100.80078 57.327545 curveto
100.80078 55.147858 moveto
102.67577 55.14787 104.14452 55.684327 105.20703 56.757233 curveto
106.26952 57.830159 106.80077 59.311928 106.80078 61.202545 curveto
106.80077 63.087966 106.26952 64.567131 105.20703 65.640045 curveto
104.14452 66.712962 102.67577 67.24942 100.80078 67.24942 curveto
98.930985 67.24942 97.462236 66.712962 96.394531 65.640045 curveto
95.33203 64.567131 94.80078 63.087966 94.800781 61.202545 curveto
94.80078 59.311928 95.33203 57.830159 96.394531 56.757233 curveto
97.462236 55.684327 98.930985 55.14787 100.80078 55.147858 curveto
fill
grestore
gsave
0 0 0 setrgbcolor
newpath
fill
grestore
gsave
0 0 0 setrgbcolor
newpath
114.62891 55.358795 moveto
117.63672 55.358795 lineto
117.63672 64.74942 lineto
122.91797 64.74942 lineto
122.91797 67.022858 lineto
114.62891 67.022858 lineto
114.62891 55.358795 lineto
fill
grestore
gsave
0 0 0 setrgbcolor
newpath
fill
grestore
gsave
0 0 0 setrgbcolor
newpath
135.70703 57.327545 moveto
134.79036 57.327555 134.07942 57.666096 133.57422 58.34317 curveto
133.06901 59.020262 132.8164 59.973386 132.81641 61.202545 curveto
132.8164 62.426508 133.06901 63.377028 133.57422 64.054108 curveto
134.07942 64.731193 134.79036 65.069735 135.70703 65.069733 curveto
136.6289 65.069735 137.34244 64.731193 137.84766 64.054108 curveto
138.35286 63.377028 138.60546 62.426508 138.60547 61.202545 curveto
138.60546 59.973386 138.35286 59.020262 137.84766 58.34317 curveto
137.34244 57.666096 136.6289 57.327555 135.70703 57.327545 curveto
135.70703 55.147858 moveto
137.58202 55.14787 139.05077 55.684327 140.11328 56.757233 curveto
141.17577 57.830159 141.70702 59.311928 141.70703 61.202545 curveto
141.70702 63.087966 141.17577 64.567131 140.11328 65.640045 curveto
139.05077 66.712962 137.58202 67.24942 135.70703 67.24942 curveto
133.83723 67.24942 132.36849 66.712962 131.30078 65.640045 curveto
130.23828 64.567131 129.70703 63.087966 129.70703 61.202545 curveto
129.70703 59.311928 130.23828 57.830159 131.30078 56.757233 curveto
132.36849 55.684327 133.83723 55.14787 135.70703 55.147858 curveto
fill
grestore
gsave
0 0 0 setrgbcolor
newpath
fill
grestore
gsave
0 0 0 setrgbcolor
newpath
160.01953 66.15567 moveto
159.26952 66.520254 158.49087 66.793691 157.68359 66.975983 curveto
156.87629 67.158274 156.04296 67.24942 155.18359 67.24942 curveto
153.24088 67.24942 151.70182 66.707754 150.56641 65.62442 curveto
149.43099 64.535881 148.86328 63.061924 148.86328 61.202545 curveto
148.86328 59.322345 149.4414 57.843179 150.59766 56.765045 curveto
151.7539 55.686932 153.33723 55.14787 155.34766 55.147858 curveto
156.12369 55.14787 156.86588 55.220786 157.57422 55.366608 curveto
158.28775 55.512453 158.95962 55.728598 159.58984 56.015045 curveto
159.58984 58.429108 lineto
158.93879 58.059325 158.29035 57.783284 157.64453 57.600983 curveto
157.0039 57.418701 156.36067 57.327555 155.71484 57.327545 curveto
154.51692 57.327555 153.59244 57.663492 152.94141 58.335358 curveto
152.29557 59.002032 151.97265 59.957761 151.97266 61.202545 curveto
151.97265 62.436925 152.28515 63.390049 152.91016 64.06192 curveto
153.53515 64.733797 154.42317 65.069735 155.57422 65.069733 curveto
155.88671 65.069735 156.17577 65.051505 156.44141 65.015045 curveto
156.71223 64.973381 156.95442 64.910881 157.16797 64.827545 curveto
157.16797 62.56192 lineto
155.33203 62.56192 lineto
155.33203 60.546295 lineto
160.01953 60.546295 lineto
160.01953 66.15567 lineto
fill
grestore
gsave
0 0 0 setrgbcolor
newpath
fill
grestore
gsave
0 0 0 setrgbcolor
newpath
168.22266 55.358795 moveto
171.23047 55.358795 lineto
171.23047 67.022858 lineto
168.22266 67.022858 lineto
168.22266 55.358795 lineto
fill
grestore
gsave
0 0 0 setrgbcolor
newpath
fill
grestore
gsave
0 0 0 setrgbcolor
newpath
179.75391 55.358795 moveto
187.87109 55.358795 lineto
187.87109 57.632233 lineto
182.76172 57.632233 lineto
182.76172 59.804108 lineto
187.56641 59.804108 lineto
187.56641 62.077545 lineto
182.76172 62.077545 lineto
182.76172 64.74942 lineto
188.04297 64.74942 lineto
188.04297 67.022858 lineto
179.75391 67.022858 lineto
179.75391 55.358795 lineto
fill
grestore
gsave
0 0 0 setrgbcolor
newpath
fill
grestore
gsave
0 0 0 setrgbcolor
newpath
204.37109 55.725983 moveto
204.37109 58.194733 lineto
203.73046 57.908283 203.10546 57.692138 202.49609 57.546295 curveto
201.88671 57.400471 201.31119 57.327555 200.76953 57.327545 curveto
200.05078 57.327555 199.51953 57.426513 199.17578 57.62442 curveto
198.83203 57.822346 198.66015 58.129637 198.66016 58.546295 curveto
198.66015 58.858803 198.77474 59.103595 199.00391 59.28067 curveto
199.23828 59.452553 199.66015 59.60099 200.26953 59.725983 curveto
201.55078 59.983795 lineto
202.84765 60.244219 203.76952 60.640052 204.31641 61.171295 curveto
204.86327 61.70255 205.13671 62.457758 205.13672 63.43692 curveto
205.13671 64.723381 204.7539 65.681713 203.98828 66.31192 curveto
203.22786 66.93692 202.06379 67.24942 200.49609 67.24942 curveto
199.75651 67.24942 199.01432 67.179108 198.26953 67.038483 curveto
197.52474 66.897858 196.77995 66.689525 196.03516 66.413483 curveto
196.03516 63.87442 lineto
196.77995 64.270256 197.4987 64.569735 198.19141 64.772858 curveto
198.88932 64.970776 199.56119 65.069735 200.20703 65.069733 curveto
200.86328 65.069735 201.36588 64.96036 201.71484 64.741608 curveto
202.06379 64.52286 202.23827 64.21036 202.23828 63.804108 curveto
202.23827 63.439528 202.11848 63.158278 201.87891 62.960358 curveto
201.64452 62.762445 201.17317 62.585362 200.46484 62.429108 curveto
199.30078 62.171295 lineto
198.13411 61.9213 197.27995 61.522863 196.73828 60.975983 curveto
196.20182 60.429114 195.93359 59.692136 195.93359 58.765045 curveto
195.93359 57.603596 196.30859 56.710368 197.05859 56.085358 curveto
197.80859 55.460369 198.88671 55.14787 200.29297 55.147858 curveto
200.93359 55.14787 201.59244 55.197349 202.26953 55.296295 curveto
202.94661 55.390057 203.64713 55.533286 204.37109 55.725983 curveto
fill
grestore
grestore
showpage
%%EOF
